[
  {
    "id": "58368d744ef6b77174a0a18e",
    "name": "ad incididunt cillum veniam magna laboris labore",
    "description": "ex Lorem anim veniam irure est non do mollit sint esse adipisicing anim ullamco id labore excepteur ullamco officia magna dolore deserunt anim sit enim nisi sint irure id mollit reprehenderit commodo minim nulla",
    "estimate": 829,
    "state": "Planned"
  },
  {
    "id": "58368d74001cc96b0aef58ca",
    "name": "proident id ad sunt enim officia id quis",
    "description": "excepteur culpa duis qui qui amet elit anim officia sunt excepteur aute et labore commodo culpa veniam ipsum cillum duis exercitation laboris laboris tempor adipisicing deserunt eu",
    "estimate": 860,
    "state": "In progress"
  },
  {
    "id": "58368d74e1585d4ea554fd8b",
    "name": "in irure sint dolore",
    "description": "sint proident anim proident mollit dolor velit mollit duis sint cillum nisi aute exercitation excepteur non aute ut ipsum eiusmod magna Lorem",
    "estimate": 613,
    "state": "Completed"
  },
  {
    "id": "58368d744881345df990cdda",
    "name": "voluptate exercitation adipisicing nulla ipsum sint anim nisi occaecat proident",
    "description": "ipsum commodo dolor minim commodo consequat aliqua reprehenderit laboris ullamco Lorem incididunt pariatur nostrud ex laborum sint cillum dolor Lorem culpa fugiat qui laborum incididunt",
    "estimate": 877,
    "state": "In progress"
  },
  {
    "id": "58368d748ea414e3273c7e7e",
    "name": "velit veniam culpa nulla irure",
    "description": "adipisicing quis elit ex et laborum veniam fugiat eiusmod eu laboris sint irure nulla in enim in elit proident laboris sunt pariatur voluptate nostrud nisi sunt",
    "estimate": 323,
    "state": "Planned"
  },
  {
    "id": "58368d74d0881a89be704c3e",
    "name": "nulla et ea anim quis",
    "description": "eiusmod commodo enim consectetur duis dolore anim id eiusmod et cupidatat occaecat veniam id proident",
    "estimate": 309,
    "state": "Planned"
  },
  {
    "id": "58368d741c86a9881e7613eb",
    "name": "anim aliqua mollit ad consequat culpa",
    "description": "incididunt velit adipisicing cupidatat sit incididunt est sint et labore voluptate excepteur eu aute labore laborum ea sunt nostrud ad ullamco amet exercitation tempor",
    "estimate": 55,
    "state": "Completed"
  },
  {
    "id": "58368d74d9d133ad2e8d1a91",
    "name": "velit non do commodo dolor ex dolore laboris",
    "description": "reprehenderit eiusmod excepteur laborum culpa ullamco cupidatat occaecat aliquip eiusmod amet anim aute labore fugiat labore reprehenderit et exercitation irure est aliquip proident irure ullamco voluptate sunt excepteur est pariatur",
    "estimate": 944,
    "state": "Planned"
  },
  {
    "id": "58368d74dc353b7e122cef55",
    "name": "mollit aliquip anim incididunt sunt pariatur",
    "description": "anim ex ad adipisicing non sit aliquip aute mollit nisi pariatur ad incididunt cupidatat excepteur enim consectetur commodo qui proident sit veniam excepteur commodo sunt aliquip ut aliquip ut irure ut velit exercitation minim enim",
    "estimate": 403,
    "state": "Completed"
  },
  {
    "id": "58368d747a99ea23d8b3f2b3",
    "name": "pariatur occaecat Lorem",
    "description": "ea anim veniam dolore voluptate nulla minim deserunt deserunt ex culpa sint non nisi et est sunt occaecat sunt dolor mollit laboris nisi minim aliqua exercitation",
    "estimate": 834,
    "state": "Completed"
  },
  {
    "id": "58368d74f04d75b585e0cf23",
    "name": "ad quis mollit et",
    "description": "excepteur labore velit in culpa sint nulla Lorem eiusmod ut sint deserunt commodo ea elit laboris aute adipisicing consequat ut magna culpa velit nisi ea duis anim minim",
    "estimate": 668,
    "state": "Planned"
  },
  {
    "id": "58368d74adb3265820f36688",
    "name": "culpa cupidatat quis ipsum",
    "description": "sit nostrud ea elit adipisicing dolore labore cillum nostrud non pariatur cillum ullamco proident consectetur laboris et exercitation quis adipisicing aliquip consequat aliquip adipisicing consequat officia velit id cupidatat id nulla sunt excepteur",
    "estimate": 1175,
    "state": "Completed"
  },
  {
    "id": "58368d7452fef8058b6e84c8",
    "name": "irure consectetur ut anim commodo cillum anim dolore",
    "description": "laboris sint sint aliquip reprehenderit ullamco cupidatat consectetur et velit sunt dolor officia et ad quis pariatur qui ea magna in tempor aliquip culpa",
    "estimate": 68,
    "state": "In progress"
  },
  {
    "id": "58368d74b638b734945c12c5",
    "name": "officia eu esse laboris cillum ut proident",
    "description": "pariatur eu laboris aute voluptate ex id veniam officia ut ad sint nisi ad sunt dolore amet mollit labore aliqua aliquip qui officia ipsum ea nostrud laborum eiusmod laborum fugiat esse in do duis non consectetur ex mollit proident",
    "estimate": 1113,
    "state": "Completed"
  },
  {
    "id": "58368d74c0bb686b013ef18e",
    "name": "proident elit id proident",
    "description": "sunt duis tempor enim dolor sunt veniam ut nostrud minim duis duis ut fugiat aliqua dolore cillum",
    "estimate": 773,
    "state": "Planned"
  },
  {
    "id": "58368d74142c73d9792e030c",
    "name": "incididunt mollit occaecat fugiat qui labore Lorem",
    "description": "veniam et amet nulla excepteur laboris anim excepteur anim excepteur qui proident pariatur deserunt Lorem cupidatat amet reprehenderit tempor minim deserunt ad quis consectetur mollit reprehenderit anim anim cupidatat aute ex",
    "estimate": 67,
    "state": "Planned"
  },
  {
    "id": "58368d746dc82dc5a4e5bccf",
    "name": "ipsum laborum anim voluptate ullamco labore ullamco id esse",
    "description": "veniam ipsum duis aliqua sit nostrud nulla magna sunt ex pariatur qui incididunt ex elit aliqua adipisicing id consequat fugiat ea sit officia anim ut nisi",
    "estimate": 56,
    "state": "Planned"
  },
  {
    "id": "58368d74c76b4a753e89e2ea",
    "name": "occaecat aliqua ea sint ipsum",
    "description": "tempor qui ex exercitation eiusmod incididunt officia ea aute proident eiusmod magna dolore ea occaecat pariatur dolor",
    "estimate": 399,
    "state": "In progress"
  },
  {
    "id": "58368d743862edaa6f94f747",
    "name": "aliqua mollit id sint do consequat deserunt eiusmod",
    "description": "pariatur cillum et eiusmod aliquip ex excepteur minim anim ipsum anim qui adipisicing incididunt et irure duis proident nostrud quis mollit tempor enim ullamco adipisicing deserunt occaecat minim non occaecat aute adipisicing non",
    "estimate": 1081,
    "state": "Completed"
  },
  {
    "id": "58368d74b633dff0bd17d244",
    "name": "reprehenderit eu amet labore ea minim amet",
    "description": "commodo ea proident cupidatat ad proident irure dolor duis fugiat sint duis ex sunt duis veniam aliquip quis magna incididunt aute est sit nostrud amet qui ea proident deserunt amet magna ut",
    "estimate": 161,
    "state": "Planned"
  },
  {
    "id": "58368d74a01a371f77b676f8",
    "name": "aliquip dolore commodo ut sint ullamco",
    "description": "labore exercitation excepteur id ullamco anim ex adipisicing tempor labore est ex elit pariatur ut eu consectetur proident exercitation commodo Lorem exercitation incididunt aute consectetur commodo",
    "estimate": 717,
    "state": "Completed"
  },
  {
    "id": "58368d740eb5b03a9cc1ea55",
    "name": "excepteur id est irure ex cillum",
    "description": "occaecat in ea anim nisi velit Lorem irure nisi esse tempor Lorem sunt sunt fugiat Lorem qui fugiat tempor mollit pariatur culpa ex consectetur adipisicing velit non culpa elit ex excepteur ut laboris esse voluptate laborum non sunt incididunt duis",
    "estimate": 801,
    "state": "In progress"
  },
  {
    "id": "58368d74c3f5959da27addd5",
    "name": "labore tempor sunt ipsum laborum Lorem in eiusmod eu",
    "description": "nostrud ex nisi incididunt nostrud officia sunt elit eu non nostrud do aliqua labore amet veniam ex voluptate enim proident occaecat consequat magna pariatur non anim",
    "estimate": 115,
    "state": "Completed"
  },
  {
    "id": "58368d74c35cd99ea4c402fe",
    "name": "adipisicing officia aliqua",
    "description": "voluptate incididunt cillum veniam elit elit ea quis amet velit laborum non occaecat anim incididunt ipsum adipisicing consequat cupidatat nisi pariatur dolor adipisicing deserunt aliqua officia sit deserunt ex fugiat mollit occaecat in dolore",
    "estimate": 896,
    "state": "In progress"
  },
  {
    "id": "58368d749b13845a7231816e",
    "name": "ex labore quis deserunt esse quis aliquip voluptate id irure",
    "description": "eiusmod culpa duis incididunt laborum ex in irure elit cillum fugiat qui amet cillum minim reprehenderit tempor sit occaecat irure enim laboris cillum eu excepteur velit mollit",
    "estimate": 445,
    "state": "In progress"
  },
  {
    "id": "58368d74b3ca779ad15d706e",
    "name": "excepteur deserunt officia proident mollit",
    "description": "tempor pariatur laboris ex esse irure aliqua ex dolor eu do minim ut commodo exercitation adipisicing pariatur fugiat ut proident enim id est velit ea occaecat excepteur nostrud dolor tempor dolore labore ad",
    "estimate": 890,
    "state": "Planned"
  },
  {
    "id": "58368d74b5686bf2596450c7",
    "name": "est sint eiusmod ipsum consequat Lorem non culpa deserunt",
    "description": "officia consectetur sunt est excepteur amet nisi nostrud duis nulla quis est amet tempor et irure laboris deserunt et sint sunt id laborum dolor consequat exercitation elit in et ad",
    "estimate": 319,
    "state": "Completed"
  },
  {
    "id": "58368d748eae025fb1605097",
    "name": "ipsum ad do voluptate minim do ipsum culpa",
    "description": "deserunt nostrud anim velit consectetur id elit officia aute ut duis in ut cupidatat qui eiusmod veniam minim ea anim enim",
    "estimate": 569,
    "state": "Planned"
  },
  {
    "id": "58368d74267bea4332192906",
    "name": "excepteur consectetur id",
    "description": "aute officia reprehenderit minim ex exercitation excepteur officia esse consectetur labore laborum eu id ex reprehenderit mollit esse sint eiusmod elit laboris aliqua",
    "estimate": 484,
    "state": "In progress"
  },
  {
    "id": "58368d7479913577bc4a0815",
    "name": "ex irure Lorem quis nisi dolor ex in mollit ut",
    "description": "qui ea tempor consectetur reprehenderit deserunt irure exercitation cillum ea excepteur ex sint laboris reprehenderit irure ad sunt ea excepteur exercitation pariatur cillum eu quis esse ut ut aliquip Lorem fugiat",
    "estimate": 580,
    "state": "In progress"
  },
  {
    "id": "58368d748368c986e284f1b2",
    "name": "commodo laboris incididunt cillum do",
    "description": "velit minim Lorem incididunt exercitation duis magna sunt nostrud deserunt et duis consequat nostrud ex nisi ad quis velit est",
    "estimate": 352,
    "state": "Planned"
  },
  {
    "id": "58368d74c069e7375b8db3ac",
    "name": "in ea quis aute",
    "description": "in elit aliquip duis incididunt dolor fugiat ut excepteur veniam tempor amet culpa ea in reprehenderit voluptate culpa laborum nulla nulla culpa tempor exercitation incididunt labore ex nisi",
    "estimate": 26,
    "state": "Completed"
  },
  {
    "id": "58368d74007d9c72459d5919",
    "name": "commodo occaecat ex sint dolore",
    "description": "voluptate laboris nulla cillum in consectetur culpa nostrud nostrud nisi aute veniam deserunt proident culpa",
    "estimate": 605,
    "state": "Planned"
  },
  {
    "id": "58368d74b895983601744a79",
    "name": "velit occaecat irure nisi velit ad excepteur",
    "description": "ipsum incididunt laborum officia deserunt sit est velit culpa enim pariatur consequat adipisicing veniam aliquip eiusmod",
    "estimate": 459,
    "state": "In progress"
  },
  {
    "id": "58368d743ddc79a7a99de8ea",
    "name": "duis mollit aute occaecat id sunt exercitation culpa nisi",
    "description": "deserunt elit veniam ipsum ad aute do pariatur anim mollit eu velit eu reprehenderit veniam irure do irure id dolor in consectetur Lorem qui culpa non id in sint fugiat excepteur quis aute dolor ipsum velit",
    "estimate": 403,
    "state": "In progress"
  },
  {
    "id": "58368d7499bce80b8649d89e",
    "name": "labore mollit commodo consequat anim culpa est aliqua",
    "description": "cillum ea sint aute proident occaecat elit nulla qui magna dolor fugiat sunt in commodo mollit ullamco in commodo ut",
    "estimate": 995,
    "state": "In progress"
  },
  {
    "id": "58368d74d67f2aa7ac70c78b",
    "name": "aute ullamco in labore magna nostrud reprehenderit",
    "description": "laboris ut elit enim nisi officia culpa ex aliqua enim nostrud pariatur in aute labore velit minim adipisicing sit pariatur non veniam ea nulla Lorem ut",
    "estimate": 626,
    "state": "Completed"
  },
  {
    "id": "58368d74acdb51d6124f2403",
    "name": "ea ut eiusmod commodo et mollit culpa minim nostrud esse",
    "description": "velit ea deserunt reprehenderit ad in culpa occaecat consectetur magna exercitation aliquip do nulla anim cillum cillum ullamco qui ullamco reprehenderit commodo labore ad",
    "estimate": 559,
    "state": "Planned"
  },
  {
    "id": "58368d74443999a3932ec8c1",
    "name": "voluptate non pariatur anim do est labore sint est ex",
    "description": "incididunt mollit nostrud quis anim cupidatat consequat veniam aute incididunt ad est irure quis ad incididunt veniam fugiat laborum id tempor do ea deserunt adipisicing ex Lorem laboris",
    "estimate": 638,
    "state": "Completed"
  },
  {
    "id": "58368d749f2d945e34ae5f64",
    "name": "voluptate incididunt et quis commodo",
    "description": "qui excepteur culpa exercitation voluptate ipsum quis pariatur excepteur laboris pariatur in aliquip quis cillum Lorem",
    "estimate": 84,
    "state": "Completed"
  },
  {
    "id": "58368d74252b7d7d4e8cf182",
    "name": "sunt ut sint sunt fugiat culpa deserunt sit",
    "description": "veniam elit elit esse sit anim occaecat proident ex ipsum aute nisi cupidatat culpa voluptate laborum ex labore amet",
    "estimate": 139,
    "state": "Planned"
  },
  {
    "id": "58368d7403b04454c8a45c65",
    "name": "veniam laboris sunt dolore nulla",
    "description": "adipisicing id minim duis ullamco eu in eu deserunt adipisicing et cillum irure ea tempor irure non sint irure sint sunt laboris est",
    "estimate": 257,
    "state": "Completed"
  },
  {
    "id": "58368d747d81647d7d6f104e",
    "name": "laboris reprehenderit id voluptate",
    "description": "officia ex sint labore enim fugiat proident aute est veniam aliquip sunt pariatur do eu officia in labore velit aute Lorem amet",
    "estimate": 524,
    "state": "In progress"
  },
  {
    "id": "58368d74733a2e2666ed9839",
    "name": "ea ex aliqua eiusmod culpa ex amet veniam dolore",
    "description": "officia consequat adipisicing dolore quis in nulla aliqua exercitation ea non nisi aliquip laboris tempor ut voluptate cillum nisi sit ipsum laborum minim et laborum laborum fugiat in nisi non anim esse ullamco enim excepteur",
    "estimate": 196,
    "state": "Completed"
  },
  {
    "id": "58368d74037c45dc74c44621",
    "name": "et voluptate esse incididunt elit ea",
    "description": "consectetur nisi amet cupidatat exercitation sit duis consequat officia Lorem aliqua fugiat aliqua id magna dolore fugiat officia cupidatat incididunt velit voluptate labore occaecat aute pariatur adipisicing",
    "estimate": 889,
    "state": "Planned"
  },
  {
    "id": "58368d749ddf59a2c25176f5",
    "name": "nostrud cupidatat do",
    "description": "ea quis nostrud culpa sint culpa exercitation magna exercitation eiusmod duis nulla cupidatat minim culpa in dolor mollit sint quis anim duis pariatur mollit culpa consequat velit nostrud minim do voluptate deserunt commodo laboris reprehenderit consequat culpa exercitation",
    "estimate": 861,
    "state": "In progress"
  },
  {
    "id": "58368d7455a5050054120706",
    "name": "enim id id reprehenderit aute cillum dolor Lorem cupidatat mollit",
    "description": "ea qui do commodo ad enim ut adipisicing elit laboris culpa aliqua elit occaecat tempor voluptate eiusmod incididunt ea Lorem sint et eu nisi amet Lorem irure anim laboris nisi",
    "estimate": 1151,
    "state": "Planned"
  },
  {
    "id": "58368d74071e2fe07b34a550",
    "name": "voluptate cupidatat id",
    "description": "reprehenderit consectetur cupidatat nulla et laboris ut laborum est et qui nisi ex cupidatat minim deserunt ut aliquip nostrud est elit pariatur",
    "estimate": 716,
    "state": "Completed"
  },
  {
    "id": "58368d7439bb74f6e525da3f",
    "name": "minim ea aliquip velit nisi ipsum",
    "description": "minim nisi cupidatat excepteur sunt do aliqua ipsum adipisicing aliqua excepteur voluptate sunt enim excepteur tempor amet ad qui amet officia velit duis aliqua adipisicing dolore anim ut aute minim minim fugiat sint voluptate ex do irure",
    "estimate": 892,
    "state": "Planned"
  },
  {
    "id": "58368d7486561d4c7a69fb29",
    "name": "culpa proident commodo aute",
    "description": "mollit cillum do nisi Lorem elit mollit id officia anim excepteur eu occaecat et ex fugiat consectetur labore consectetur velit in occaecat pariatur ipsum sunt sit reprehenderit ad culpa id et commodo dolor dolor ex labore dolore",
    "estimate": 1079,
    "state": "Planned"
  }
]
